FIRMWARE_VER:8.1
MACHINE_MODEL:RK3399
MACHINE_ID:007
MANUFACTURER: RK3399
MAGIC: 0x5041524B
ATAG: 0x00200800
MACHINE: 3399
CHECK_MASK: 0x80
PWR_HLD: 0,0,A,0,1
CMDLINE: console=ttyFIQ0 androidboot.baseband=N/A androidboot.selinux=permissive androidboot.veritymode=enforcing androidboot.hardware=rk30board androidboot.console=ttyFIQ0 init=/init initrd=0x62000000,0x00800000 mtdparts=rk29xxnand:0x00002000@0x00002000(uboot),0x00002000@0x00004000(trust),0x00002000@0x00006000(misc),0x00008000@0x00008000(resource),0x0000C000@0x00010000(kernel),0x00010000@0x0001C000(boot),0x00020000@0x0002C000(recovery),0x00038000@0x0004C000(backup),0x00002000@0x00084000(security),0x00100000@0x00086000(cache),0x00300000@0x00186000(system),0x00008000@0x00486000(metadata),0x00100000@0x0048E000(vendor),0x00080000@0x0058E000(oem),0x00002000@0x0060E000(frp),-@0x00610000(userdata)
